"names","y","flowps_score"
"PANLJN_09A_03R","100","29.9145299145299"
"PANGCM_03A_03R","0","0"
"PANBYS_09A_03R","100","100"
"PANNHB_09A_03R","0","10.2040816326531"
"PANBWF_09A_03R","100","34.5454545454545"
"PANUUA_09A_02R","0","0"
"PANYSN_03A_04R","100","100"
"PANKNB_09A_03R","0","80.2816901408451"
"PANLXK_09A_03R","100","0"
"PANLIR_09A_02R","0","9.9009900990099"
"PANDIX_09A_03R","100","100"
"PAMVKZ_09A_03R","0","0"
"PANKFZ_09A_04R","100","60.377358490566"
"PANKKE_09A_03R","0","0"
"PANFMG_09A_04R","100","95.8333333333333"
"PANVGP_03A_04R","0","0"
"PANJGR_09A_03R","100","100"
"PANVBP_09A_02R","0","86.0759493670886"
"PANGJY_09A_03R","100","100"
"PAPBEJ_09A_03R","0","3.125"
"PANAEV_09A_03R","100","100"
"PANYNR_03A_03R","0","0"
"PANHYK_09A_01R","100","0"
"PANLXM_09A_03R","0","0"
"PANWHP_09A_02R","100","100"
"PANBZH_09A_03R","0","26.6666666666667"
"PAPAWN_09A_02R","100","100"
"PANPLS_03A_04R","0","0"
"PAMVVP_09A_03R","100","100"
"PAPAEG_09A_02R","0","70"
"PANUTB_09A_05R","100","92.8571428571429"
"PANPTM_09A_02R","0","0"
"PANZKA_09A_02R","100","97.9381443298969"
"PANSJB_09A_03R","0","0"
"PANINI_09A_03R","100","21.1764705882353"
"PAMYJX_09A_04R","0","27"
"PANPKN_09A_03R","100","100"
"PANNJI_09A_03R","0","2.06185567010309"
"PANLLX_09A_01R","100","2.12765957446809"
"PANSBH_09A_05R","0","68.3760683760684"
"PANLKB_09A_03R","100","100"
"PANTNA_09A_02R","0","0"
"PANVGE_09A_02R","100","79.7979797979798"
"PANLRE_09A_05R","0","67.1641791044776"
"PANKFG_09A_02R","100","0"
"PANGTF_09A_04R","0","12.3809523809524"
